…
                # add low/high risk variables for our two comparison groups
                mutate(lowRisk = !supr99 & !supr18,
                       highRisk = supr99 &  supr18,
                       obsLow = !supr_recall & !supr18,
                       obsHigh = supr_recall &  supr18)

    # look at vitamins data set
    vitamins

    ## # A tibble: 200 x 11
    ##    mlti99 supr99 mlti18 supr18 cancer mlti_… supr… lowR… high… obsL… obsH…
    ##     <int>  <int>  <int>  <int>  <int>  <int> <int> <lgl> <lgl> <lgl> <lgl>
    ##  1      0      1      0      1      0      0     1 F     T     F     T    
    ##  2      0      1      0      1      1      0     0 F     T     F     F    
    ##  3      1      0      1      0      0      1     1 T     F     F     F    
    ##  4      0      1      0      1      0      0     1 F     T     F     T    
    ##  5      1      0      1      0      0      1     0 T     F     T     F    
    ##  6      0      1      0      1      0      0     1 F     T     F     T    
    ##  7      0      0      0      0      0      0     0 T     F     T     F    
    ##  8      0      1      0      1      0      0     1 F     T     F     T    
    ##  9      0      1      0      1      0      0     1 F     T     F     T    
    ## 10      0      0      0      1      0      0     0 F     F     F     F    
    ## # ... with 190 more rows
…
